<define-tag pagetitle>DLA-2994-1 firefox-esr</define-tag>
<define-tag report_date>2022-05-05</define-tag>
<define-tag secrefs>CVE-2022-29909 CVE-2022-29911 CVE-2022-29912 CVE-2022-29914 CVE-2022-29916 CVE-2022-29917</define-tag>
<define-tag packages>firefox-esr</define-tag>
<define-tag isvulnerable>yes</define-tag>
<define-tag fixed>yes</define-tag>
<define-tag fixed-section>no</define-tag>

#use wml::debian::security

