<define-tag pagetitle>DLA-3041-1 thunderbird</define-tag>
<define-tag report_date>2022-06-03</define-tag>
<define-tag secrefs>CVE-2022-1529 CVE-2022-1802 CVE-2022-1834 CVE-2022-31736 CVE-2022-31737 CVE-2022-31738 CVE-2022-31740 CVE-2022-31741 CVE-2022-31742 CVE-2022-31747</define-tag>
<define-tag packages>thunderbird</define-tag>
<define-tag isvulnerable>yes</define-tag>
<define-tag fixed>yes</define-tag>
<define-tag fixed-section>no</define-tag>

#use wml::debian::security

