<define-tag pagetitle>DLA-3222-1 node-fetch</define-tag>
<define-tag report_date>2022-12-05</define-tag>
<define-tag secrefs>CVE-2022-0235</define-tag>
<define-tag packages>node-fetch</define-tag>
<define-tag isvulnerable>yes</define-tag>
<define-tag fixed>yes</define-tag>
<define-tag fixed-section>no</define-tag>

#use wml::debian::security

