<define-tag pagetitle>DLA-3243-1 php7.3</define-tag>
<define-tag report_date>2022-12-15</define-tag>
<define-tag secrefs>CVE-2021-21707 CVE-2022-31625 CVE-2022-31626 CVE-2022-31628 CVE-2022-31629 CVE-2022-37454</define-tag>
<define-tag packages>php7.3</define-tag>
<define-tag isvulnerable>yes</define-tag>
<define-tag fixed>yes</define-tag>
<define-tag fixed-section>no</define-tag>

#use wml::debian::security

