<define-tag pagetitle>DLA-3186-1 exiv2</define-tag>
<define-tag report_date>2022-11-10</define-tag>
<define-tag secrefs>CVE-2017-11683 CVE-2020-19716 Bug#876893</define-tag>
<define-tag packages>exiv2</define-tag>
<define-tag isvulnerable>yes</define-tag>
<define-tag fixed>yes</define-tag>
<define-tag fixed-section>no</define-tag>

#use wml::debian::security

