<define-tag pagetitle>DLA-3117-1 mediawiki</define-tag>
<define-tag report_date>2022-9-22</define-tag>
<define-tag secrefs>CVE-2021-44856 CVE-2022-28201 CVE-2022-28202 CVE-2022-28203 CVE-2022-34911 CVE-2022-34912</define-tag>
<define-tag packages>mediawiki</define-tag>
<define-tag isvulnerable>yes</define-tag>
<define-tag fixed>yes</define-tag>
<define-tag fixed-section>no</define-tag>

#use wml::debian::security

