<define-tag pagetitle>DLA-2987-1 libarchive</define-tag>
<define-tag report_date>2022-4-30</define-tag>
<define-tag secrefs>CVE-2019-19221 CVE-2021-23177 CVE-2021-31566</define-tag>
<define-tag packages>libarchive</define-tag>
<define-tag isvulnerable>yes</define-tag>
<define-tag fixed>yes</define-tag>
<define-tag fixed-section>no</define-tag>

#use wml::debian::security

