<define-tag pagetitle>DLA-3150-1 rexical</define-tag>
<define-tag report_date>2022-10-12</define-tag>
<define-tag secrefs>CVE-2019-5477 Bug#940905</define-tag>
<define-tag packages>rexical</define-tag>
<define-tag isvulnerable>yes</define-tag>
<define-tag fixed>yes</define-tag>
<define-tag fixed-section>no</define-tag>

#use wml::debian::security

