<define-tag pagetitle>DLA-3160-1 tomcat9</define-tag>
<define-tag report_date>2022-10-26</define-tag>
<define-tag secrefs>CVE-2021-43980 CVE-2022-23181 CVE-2022-29885</define-tag>
<define-tag packages>tomcat9</define-tag>
<define-tag isvulnerable>yes</define-tag>
<define-tag fixed>yes</define-tag>
<define-tag fixed-section>no</define-tag>

#use wml::debian::security

