<define-tag pagetitle>DLA-3068-1 xorg-server</define-tag>
<define-tag report_date>2022-08-04</define-tag>
<define-tag secrefs>CVE-2022-2319 CVE-2022-2320</define-tag>
<define-tag packages>xorg-server</define-tag>
<define-tag isvulnerable>yes</define-tag>
<define-tag fixed>yes</define-tag>
<define-tag fixed-section>no</define-tag>

#use wml::debian::security

