<define-tag pagetitle>DLA-3054-1 sleuthkit</define-tag>
<define-tag report_date>2022-06-20</define-tag>
<define-tag secrefs>CVE-2017-13755 CVE-2017-13756 CVE-2017-13760 CVE-2018-19497 CVE-2020-10232 CVE-2019-1010065</define-tag>
<define-tag packages>sleuthkit</define-tag>
<define-tag isvulnerable>yes</define-tag>
<define-tag fixed>yes</define-tag>
<define-tag fixed-section>no</define-tag>

#use wml::debian::security

