<define-tag pagetitle>DLA-3093-2 rails</define-tag>
<define-tag report_date>2022-10-02</define-tag>
<define-tag packages>rails</define-tag>
<define-tag isvulnerable>yes</define-tag>
<define-tag fixed>yes</define-tag>
<define-tag fixed-section>no</define-tag>

#use wml::debian::security

