<define-tag pagetitle>DSA-5029-1 sogo</define-tag>
<define-tag report_date>2021-12-22</define-tag>
<define-tag secrefs>CVE-2021-33054</define-tag>
<define-tag packages>sogo</define-tag>
<define-tag isvulnerable>yes</define-tag>
<define-tag fixed>yes</define-tag>
<define-tag fixed-section>no</define-tag>

#use wml::debian::security



</dl>
