<define-tag pagetitle>DSA-4851-1 subversion</define-tag>
<define-tag report_date>2021-2-13</define-tag>
<define-tag secrefs>CVE-2020-17525 Bug#982464</define-tag>
<define-tag packages>subversion</define-tag>
<define-tag isvulnerable>yes</define-tag>
<define-tag fixed>yes</define-tag>
<define-tag fixed-section>no</define-tag>

#use wml::debian::security



</dl>
