<define-tag pagetitle>DSA-5011-1 salt</define-tag>
<define-tag report_date>2021-11-19</define-tag>
<define-tag secrefs>CVE-2021-21996 CVE-2021-31607 CVE-2021-25284 CVE-2021-25283 CVE-2021-25282 CVE-2021-25281 CVE-2021-3197 CVE-2021-3148 CVE-2021-3144 CVE-2020-35662 CVE-2020-28972 CVE-2020-28243 Bug#983632 Bug#994016 Bug#987496</define-tag>
<define-tag packages>salt</define-tag>
<define-tag isvulnerable>yes</define-tag>
<define-tag fixed>yes</define-tag>
<define-tag fixed-section>no</define-tag>

#use wml::debian::security



</dl>
