<define-tag pagetitle>DSA-4849-1 firejail</define-tag>
<define-tag report_date>2021-2-09</define-tag>
<define-tag secrefs>CVE-2021-26910</define-tag>
<define-tag packages>firejail</define-tag>
<define-tag isvulnerable>yes</define-tag>
<define-tag fixed>yes</define-tag>
<define-tag fixed-section>no</define-tag>

#use wml::debian::security



</dl>
