<define-tag pagetitle>DSA-5003-1 samba</define-tag>
<define-tag report_date>2021-11-09</define-tag>
<define-tag secrefs>CVE-2016-2124 CVE-2020-25717 CVE-2020-25718 CVE-2020-25719 CVE-2020-25721 CVE-2020-25722 CVE-2021-3738 CVE-2021-23192</define-tag>
<define-tag packages>samba</define-tag>
<define-tag isvulnerable>yes</define-tag>
<define-tag fixed>yes</define-tag>
<define-tag fixed-section>no</define-tag>

#use wml::debian::security



</dl>
