<define-tag pagetitle>DSA-4629-1 python-django</define-tag>
<define-tag report_date>2020-2-19</define-tag>
<define-tag secrefs>CVE-2020-7471 Bug#950581</define-tag>
<define-tag packages>python-django</define-tag>
<define-tag isvulnerable>yes</define-tag>
<define-tag fixed>yes</define-tag>
<define-tag fixed-section>no</define-tag>

#use wml::debian::security



</dl>
