<define-tag pagetitle>DSA-4759-1 ark</define-tag>
<define-tag report_date>2020-9-04</define-tag>
<define-tag secrefs>CVE-2020-24654 Bug#969437</define-tag>
<define-tag packages>ark</define-tag>
<define-tag isvulnerable>yes</define-tag>
<define-tag fixed>yes</define-tag>
<define-tag fixed-section>no</define-tag>

#use wml::debian::security



</dl>
