<define-tag pagetitle>DSA-4716-1 docker.io</define-tag>
<define-tag report_date>2020-7-02</define-tag>
<define-tag secrefs>CVE-2020-13401 Bug#962141</define-tag>
<define-tag packages>docker.io</define-tag>
<define-tag isvulnerable>yes</define-tag>
<define-tag fixed>yes</define-tag>
<define-tag fixed-section>no</define-tag>

#use wml::debian::security



</dl>
