<define-tag pagetitle>DSA-4793-1 firefox-esr</define-tag>
<define-tag report_date>2020-11-18</define-tag>
<define-tag secrefs>CVE-2020-16012 CVE-2020-26951 CVE-2020-26953 CVE-2020-26956 CVE-2020-26958 CVE-2020-26959 CVE-2020-26960 CVE-2020-26961 CVE-2020-26965 CVE-2020-26968</define-tag>
<define-tag packages>firefox-esr</define-tag>
<define-tag isvulnerable>yes</define-tag>
<define-tag fixed>yes</define-tag>
<define-tag fixed-section>no</define-tag>

#use wml::debian::security



</dl>
