<define-tag pagetitle>DLA-2758-1 sssd</define-tag>
<define-tag report_date>2021-09-15</define-tag>
<define-tag secrefs>CVE-2021-3621</define-tag>
<define-tag packages>sssd</define-tag>
<define-tag isvulnerable>yes</define-tag>
<define-tag fixed>yes</define-tag>
<define-tag fixed-section>no</define-tag>

#use wml::debian::security

