<define-tag pagetitle>DLA-2626-1 clamav</define-tag>
<define-tag report_date>2021-04-14</define-tag>
<define-tag secrefs>CVE-2021-1405 Bug#986622 Bug#986790</define-tag>
<define-tag packages>clamav</define-tag>
<define-tag isvulnerable>yes</define-tag>
<define-tag fixed>yes</define-tag>
<define-tag fixed-section>no</define-tag>

#use wml::debian::security

