<define-tag pagetitle>DLA-2855-1 monit</define-tag>
<define-tag report_date>2021-12-27</define-tag>
<define-tag secrefs>CVE-2019-11454 CVE-2019-11455 Bug#927775</define-tag>
<define-tag packages>monit</define-tag>
<define-tag isvulnerable>yes</define-tag>
<define-tag fixed>yes</define-tag>
<define-tag fixed-section>no</define-tag>

#use wml::debian::security

