<define-tag pagetitle>DLA-2619-1 python3.5</define-tag>
<define-tag report_date>2021-04-05</define-tag>
<define-tag secrefs>CVE-2021-3177 CVE-2021-3426 CVE-2021-23336</define-tag>
<define-tag packages>python3.5</define-tag>
<define-tag isvulnerable>yes</define-tag>
<define-tag fixed>yes</define-tag>
<define-tag fixed-section>no</define-tag>

#use wml::debian::security

