<define-tag pagetitle>DLA-2734-1 curl</define-tag>
<define-tag report_date>2021-08-13</define-tag>
<define-tag secrefs>CVE-2021-22898 CVE-2021-22924</define-tag>
<define-tag packages>curl</define-tag>
<define-tag isvulnerable>yes</define-tag>
<define-tag fixed>yes</define-tag>
<define-tag fixed-section>no</define-tag>

#use wml::debian::security

