<define-tag pagetitle>DLA-2735-1 ceph</define-tag>
<define-tag report_date>2021-8-11</define-tag>
<define-tag secrefs>CVE-2018-14662 CVE-2018-16846 CVE-2020-1760 CVE-2020-10753 CVE-2021-3524 Bug#921948 Bug#921947 Bug#956142 Bug#975300 Bug#988889</define-tag>
<define-tag packages>ceph</define-tag>
<define-tag isvulnerable>yes</define-tag>
<define-tag fixed>yes</define-tag>
<define-tag fixed-section>no</define-tag>

#use wml::debian::security

