<define-tag pagetitle>DSA-5405-1 libapache2-mod-auth-openidc</define-tag>
<define-tag report_date>2023-5-18</define-tag>
<define-tag secrefs>CVE-2023-28625 Bug#1033916</define-tag>
<define-tag packages>libapache2-mod-auth-openidc</define-tag>
<define-tag isvulnerable>yes</define-tag>
<define-tag fixed>yes</define-tag>
<define-tag fixed-section>no</define-tag>

#use wml::debian::security



</dl>
