<define-tag pagetitle>DSA-5338-1 cinder</define-tag>
<define-tag report_date>2023-2-01</define-tag>
<define-tag secrefs>CVE-2022-47951 Bug#1029562</define-tag>
<define-tag packages>cinder</define-tag>
<define-tag isvulnerable>yes</define-tag>
<define-tag fixed>yes</define-tag>
<define-tag fixed-section>no</define-tag>

#use wml::debian::security



</dl>
