<define-tag pagetitle>DSA-5458-1 openjdk-17</define-tag>
<define-tag report_date>2023-7-25</define-tag>
<define-tag secrefs>CVE-2023-22006 CVE-2023-22036 CVE-2023-22041 CVE-2023-22044 CVE-2023-22045 CVE-2023-22049</define-tag>
<define-tag packages>openjdk-17</define-tag>
<define-tag isvulnerable>yes</define-tag>
<define-tag fixed>yes</define-tag>
<define-tag fixed-section>no</define-tag>

#use wml::debian::security



</dl>
