<define-tag pagetitle>DSA-5428-1 chromium</define-tag>
<define-tag report_date>2023-6-15</define-tag>
<define-tag secrefs>CVE-2023-3214 CVE-2023-3215 CVE-2023-3216 CVE-2023-3217</define-tag>
<define-tag packages>chromium</define-tag>
<define-tag isvulnerable>yes</define-tag>
<define-tag fixed>yes</define-tag>
<define-tag fixed-section>no</define-tag>

#use wml::debian::security



</dl>
