<define-tag pagetitle>DSA-5412-1 libraw</define-tag>
<define-tag report_date>2023-5-27</define-tag>
<define-tag secrefs>CVE-2021-32142 CVE-2023-1729 Bug#1031790 Bug#1036281</define-tag>
<define-tag packages>libraw</define-tag>
<define-tag isvulnerable>yes</define-tag>
<define-tag fixed>yes</define-tag>
<define-tag fixed-section>no</define-tag>

#use wml::debian::security



</dl>
