<define-tag pagetitle>DSA-5522-2 tomcat9</define-tag>
<define-tag report_date>2023-10-12</define-tag>
<define-tag secrefs>CVE-2023-44487 Bug#1053820</define-tag>
<define-tag packages>tomcat9</define-tag>
<define-tag isvulnerable>yes</define-tag>
<define-tag fixed>yes</define-tag>
<define-tag fixed-section>no</define-tag>

#use wml::debian::security



</dl>
