<define-tag pagetitle>DSA-5472-1 cjose</define-tag>
<define-tag report_date>2023-8-08</define-tag>
<define-tag secrefs>CVE-2023-37464 Bug#1041423</define-tag>
<define-tag packages>cjose</define-tag>
<define-tag isvulnerable>yes</define-tag>
<define-tag fixed>yes</define-tag>
<define-tag fixed-section>no</define-tag>

#use wml::debian::security



</dl>
