<define-tag pagetitle>DSA-5447-1 mediawiki</define-tag>
<define-tag report_date>2023-7-05</define-tag>
<define-tag secrefs>CVE-2023-29141 CVE-2023-36674 CVE-2023-36675 Bug#1039075</define-tag>
<define-tag packages>mediawiki</define-tag>
<define-tag isvulnerable>yes</define-tag>
<define-tag fixed>yes</define-tag>
<define-tag fixed-section>no</define-tag>

#use wml::debian::security



</dl>
