<define-tag pagetitle>DSA-5522-1 tomcat9</define-tag>
<define-tag report_date>2023-10-10</define-tag>
<define-tag secrefs>CVE-2023-24998 CVE-2023-41080 CVE-2023-42795 CVE-2023-44487 CVE-2023-45648</define-tag>
<define-tag packages>tomcat9</define-tag>
<define-tag isvulnerable>yes</define-tag>
<define-tag fixed>yes</define-tag>
<define-tag fixed-section>no</define-tag>

#use wml::debian::security



</dl>
