<define-tag pagetitle>DSA-5516-1 libxpm</define-tag>
<define-tag report_date>2023-10-05</define-tag>
<define-tag secrefs>CVE-2023-43788 CVE-2023-43789</define-tag>
<define-tag packages>libxpm</define-tag>
<define-tag isvulnerable>yes</define-tag>
<define-tag fixed>yes</define-tag>
<define-tag fixed-section>no</define-tag>

#use wml::debian::security



</dl>
