<define-tag pagetitle>DSA-5437-1 hsqldb</define-tag>
<define-tag report_date>2023-6-21</define-tag>
<define-tag secrefs>CVE-2023-1183</define-tag>
<define-tag packages>hsqldb</define-tag>
<define-tag isvulnerable>yes</define-tag>
<define-tag fixed>yes</define-tag>
<define-tag fixed-section>no</define-tag>

#use wml::debian::security



</dl>
