<define-tag pagetitle>DSA-5328-1 chromium</define-tag>
<define-tag report_date>2023-1-26</define-tag>
<define-tag secrefs>CVE-2023-0471 CVE-2023-0472 CVE-2023-0473 CVE-2023-0474 Bug#1011346</define-tag>
<define-tag packages>chromium</define-tag>
<define-tag isvulnerable>yes</define-tag>
<define-tag fixed>yes</define-tag>
<define-tag fixed-section>no</define-tag>

#use wml::debian::security



</dl>
