<define-tag pagetitle>DSA-5417-1 openssl</define-tag>
<define-tag report_date>2023-5-31</define-tag>
<define-tag secrefs>CVE-2023-0464 CVE-2023-0465 CVE-2023-0466 CVE-2023-2650 Bug#1034720</define-tag>
<define-tag packages>openssl</define-tag>
<define-tag isvulnerable>yes</define-tag>
<define-tag fixed>yes</define-tag>
<define-tag fixed-section>no</define-tag>

#use wml::debian::security



</dl>
