<define-tag pagetitle>DSA-5456-1 chromium</define-tag>
<define-tag report_date>2023-7-20</define-tag>
<define-tag secrefs>CVE-2023-3727 CVE-2023-3728 CVE-2023-3730 CVE-2023-3732 CVE-2023-3733 CVE-2023-3734 CVE-2023-3735 CVE-2023-3736 CVE-2023-3737 CVE-2023-3738 CVE-2023-3740</define-tag>
<define-tag packages>chromium</define-tag>
<define-tag isvulnerable>yes</define-tag>
<define-tag fixed>yes</define-tag>
<define-tag fixed-section>no</define-tag>

#use wml::debian::security



</dl>
