<define-tag pagetitle>DSA-5481-1 fastdds</define-tag>
<define-tag report_date>2023-8-20</define-tag>
<define-tag secrefs>CVE-2023-39534 CVE-2023-39945 CVE-2023-39946 CVE-2023-39947 CVE-2023-39948 CVE-2023-39949</define-tag>
<define-tag packages>fastdds</define-tag>
<define-tag isvulnerable>yes</define-tag>
<define-tag fixed>yes</define-tag>
<define-tag fixed-section>no</define-tag>

#use wml::debian::security



</dl>
