<define-tag pagetitle>DSA-5317-1 chromium</define-tag>
<define-tag report_date>2023-1-13</define-tag>
<define-tag secrefs>CVE-2023-0141 CVE-2023-0140 CVE-2023-0139 CVE-2023-0138 CVE-2023-0137 CVE-2023-0136 CVE-2023-0135 CVE-2023-0134 CVE-2023-0133 CVE-2023-0132 CVE-2023-0131 CVE-2023-0130 CVE-2023-0129 CVE-2023-0128</define-tag>
<define-tag packages>chromium</define-tag>
<define-tag isvulnerable>yes</define-tag>
<define-tag fixed>yes</define-tag>
<define-tag fixed-section>no</define-tag>

#use wml::debian::security



</dl>
