<define-tag pagetitle>DSA-5379-1 dino-im</define-tag>
<define-tag report_date>2023-3-27</define-tag>
<define-tag secrefs>CVE-2023-28686 Bug#1033370</define-tag>
<define-tag packages>dino-im</define-tag>
<define-tag isvulnerable>yes</define-tag>
<define-tag fixed>yes</define-tag>
<define-tag fixed-section>no</define-tag>

#use wml::debian::security



</dl>
