<define-tag pagetitle>DLA-1141-1 mysql-5.5</define-tag>
<define-tag report_date>2017-10-19</define-tag>
<define-tag secrefs>CVE-2017-10268 CVE-2017-10378 CVE-2017-10379 CVE-2017-10384 Bug#878402</define-tag>
<define-tag packages>mysql-5.5</define-tag>
<define-tag isvulnerable>yes</define-tag>
<define-tag fixed>yes</define-tag>
<define-tag fixed-section>no</define-tag>

#use wml::debian::security

