<define-tag pagetitle>DLA-1140-1 graphicsmagick</define-tag>
<define-tag report_date>2017-10-19</define-tag>
<define-tag secrefs>CVE-2017-13737 CVE-2017-15277</define-tag>
<define-tag packages>graphicsmagick</define-tag>
<define-tag isvulnerable>yes</define-tag>
<define-tag fixed>yes</define-tag>
<define-tag fixed-section>no</define-tag>

#use wml::debian::security

