<define-tag pagetitle>DLA-3624-1 zookeeper</define-tag>
<define-tag report_date>2023-10-20</define-tag>
<define-tag secrefs>CVE-2023-44981</define-tag>
<define-tag packages>zookeeper</define-tag>
<define-tag isvulnerable>yes</define-tag>
<define-tag fixed>yes</define-tag>
<define-tag fixed-section>no</define-tag>

#use wml::debian::security
