<define-tag pagetitle>DLA-3470-1 owslib</define-tag>
<define-tag report_date>2023-06-25</define-tag>
<define-tag secrefs>CVE-2023-27476 bug#1034182</define-tag>
<define-tag packages>owslib</define-tag>
<define-tag isvulnerable>yes</define-tag>
<define-tag fixed>yes</define-tag>
<define-tag fixed-section>no</define-tag>

#use wml::debian::security

