<define-tag pagetitle>DLA-3435-1 rainloop</define-tag>
<define-tag report_date>2023-05-28</define-tag>
<define-tag secrefs>CVE-2019-13389 CVE-2022-29360 Bug#1004548</define-tag>
<define-tag packages>rainloop</define-tag>
<define-tag isvulnerable>yes</define-tag>
<define-tag fixed>yes</define-tag>
<define-tag fixed-section>no</define-tag>

#use wml::debian::security

