<define-tag pagetitle>DLA-3329-1 python-django</define-tag>
<define-tag report_date>2023-02-20</define-tag>
<define-tag secrefs>CVE-2023-24580</define-tag>
<define-tag packages>python-django</define-tag>
<define-tag isvulnerable>yes</define-tag>
<define-tag fixed>yes</define-tag>
<define-tag fixed-section>no</define-tag>

#use wml::debian::security
