<define-tag pagetitle>DLA-3474-1 systemd</define-tag>
<define-tag report_date>2023-06-29</define-tag>
<define-tag secrefs>CVE-2022-3821 bug#1021644</define-tag>
<define-tag packages>systemd</define-tag>
<define-tag isvulnerable>yes</define-tag>
<define-tag fixed>yes</define-tag>
<define-tag fixed-section>no</define-tag>

#use wml::debian::security

