<define-tag pagetitle>DLA-3525-1 linux-5.10</define-tag>
<define-tag report_date>2023-08-11</define-tag>
<define-tag secrefs>CVE-2022-40982 CVE-2023-20569</define-tag>
<define-tag packages>linux-5.10</define-tag>
<define-tag isvulnerable>yes</define-tag>
<define-tag fixed>yes</define-tag>
<define-tag fixed-section>no</define-tag>

#use wml::debian::security

