<define-tag pagetitle>DLA-3616-1 org-mode</define-tag>
<define-tag report_date>2023-10-12</define-tag>
<define-tag secrefs>CVE-2023-28617</define-tag>
<define-tag packages>org-mode</define-tag>
<define-tag isvulnerable>yes</define-tag>
<define-tag fixed>yes</define-tag>
<define-tag fixed-section>no</define-tag>

#use wml::debian::security
