<define-tag pagetitle>DLA-3306-1 python-django</define-tag>
<define-tag report_date>2023-02-01</define-tag>
<define-tag secrefs>CVE-2023-23969</define-tag>
<define-tag packages>python-django</define-tag>
<define-tag isvulnerable>yes</define-tag>
<define-tag fixed>yes</define-tag>
<define-tag fixed-section>no</define-tag>

#use wml::debian::security
