<define-tag pagetitle>DLA-3289-1 dojo</define-tag>
<define-tag report_date>2023-01-29</define-tag>
<define-tag secrefs>CVE-2020-4051 CVE-2021-23450 Bug#970000 Bug#1014785</define-tag>
<define-tag packages>dojo</define-tag>
<define-tag isvulnerable>yes</define-tag>
<define-tag fixed>yes</define-tag>
<define-tag fixed-section>no</define-tag>

#use wml::debian::security

