<define-tag pagetitle>DLA-3378-1 duktape</define-tag>
<define-tag report_date>2023-3-31</define-tag>
<define-tag secrefs>CVE-2021-46322</define-tag>
<define-tag packages>duktape</define-tag>
<define-tag isvulnerable>yes</define-tag>
<define-tag fixed>yes</define-tag>
<define-tag fixed-section>no</define-tag>

#use wml::debian::security

