<define-tag pagetitle>DLA-3443-1 wireshark</define-tag>
<define-tag report_date>2023-06-03</define-tag>
<define-tag secrefs>CVE-2023-2856 CVE-2023-2858 CVE-2023-2879 CVE-2023-2952</define-tag>
<define-tag packages>wireshark</define-tag>
<define-tag isvulnerable>yes</define-tag>
<define-tag fixed>yes</define-tag>
<define-tag fixed-section>no</define-tag>

#use wml::debian::security

