<define-tag pagetitle>DLA-3440-1 cups</define-tag>
<define-tag report_date>2023-6-1</define-tag>
<define-tag secrefs>CVE-2023-32324</define-tag>
<define-tag packages>cups</define-tag>
<define-tag isvulnerable>yes</define-tag>
<define-tag fixed>yes</define-tag>
<define-tag fixed-section>no</define-tag>

#use wml::debian::security

