<define-tag pagetitle>DLA-3453-1 vim</define-tag>
<define-tag report_date>2023-6-12</define-tag>
<define-tag secrefs>CVE-2022-4141 CVE-2023-0054 CVE-2023-1175 CVE-2023-2610 Bug#1027146 Bug#1031875 Bug#1035955</define-tag>
<define-tag packages>vim</define-tag>
<define-tag isvulnerable>yes</define-tag>
<define-tag fixed>yes</define-tag>
<define-tag fixed-section>no</define-tag>

#use wml::debian::security

