<define-tag pagetitle>DLA-3314-1 libsdl2</define-tag>
<define-tag report_date>2023-2-09</define-tag>
<define-tag secrefs>CVE-2019-7572 CVE-2019-7573 CVE-2019-7574 CVE-2019-7575 CVE-2019-7576 CVE-2019-7577 CVE-2019-7578 CVE-2019-7635 CVE-2019-7636 CVE-2019-7638 CVE-2019-13616 CVE-2019-13626 CVE-2020-14409 CVE-2020-14410 CVE-2021-33657 CVE-2022-4743 Bug#924610 Bug#1014577</define-tag>
<define-tag packages>libsdl2</define-tag>
<define-tag isvulnerable>yes</define-tag>
<define-tag fixed>yes</define-tag>
<define-tag fixed-section>no</define-tag>

#use wml::debian::security

