<define-tag pagetitle>DLA-3430-1 cups-filters</define-tag>
<define-tag report_date>2023-5-21</define-tag>
<define-tag secrefs>CVE-2023-24805 Bug#1036224</define-tag>
<define-tag packages>cups-filters</define-tag>
<define-tag isvulnerable>yes</define-tag>
<define-tag fixed>yes</define-tag>
<define-tag fixed-section>no</define-tag>

#use wml::debian::security

