<define-tag pagetitle>DLA-3534-1 rar</define-tag>
<define-tag report_date>2023-8-17</define-tag>
<define-tag secrefs>CVE-2022-30333 Bug#1012228</define-tag>
<define-tag packages>rar</define-tag>
<define-tag isvulnerable>yes</define-tag>
<define-tag fixed>yes</define-tag>
<define-tag fixed-section>no</define-tag>

#use wml::debian::security

