<define-tag pagetitle>DLA-3528-1 poppler</define-tag>
<define-tag report_date>2023-08-14</define-tag>
<define-tag secrefs>CVE-2020-36023 CVE-2020-36024</define-tag>
<define-tag packages>poppler</define-tag>
<define-tag isvulnerable>yes</define-tag>
<define-tag fixed>yes</define-tag>
<define-tag fixed-section>no</define-tag>

#use wml::debian::security

