<define-tag pagetitle>DLA-3489-1 mediawiki</define-tag>
<define-tag report_date>2023-7-10</define-tag>
<define-tag secrefs>CVE-2022-47927</define-tag>
<define-tag packages>mediawiki</define-tag>
<define-tag isvulnerable>yes</define-tag>
<define-tag fixed>yes</define-tag>
<define-tag fixed-section>no</define-tag>

#use wml::debian::security

