<define-tag pagetitle>DLA-3604-1 qemu</define-tag>
<define-tag report_date>2023-10-05</define-tag>
<define-tag secrefs>CVE-2020-24165 CVE-2023-0330 CVE-2023-3180 Bug#1029155</define-tag>
<define-tag packages>qemu</define-tag>
<define-tag isvulnerable>yes</define-tag>
<define-tag fixed>yes</define-tag>
<define-tag fixed-section>no</define-tag>

#use wml::debian::security

