<define-tag pagetitle>DLA-3486-1 ocsinventory-server</define-tag>
<define-tag report_date>2023-07-08</define-tag>
<define-tag packages>ocsinventory-server</define-tag>
<define-tag isvulnerable>yes</define-tag>
<define-tag fixed>yes</define-tag>
<define-tag fixed-section>no</define-tag>

#use wml::debian::security

