<define-tag pagetitle>DLA-3601-1 thunderbird</define-tag>
<define-tag report_date>2023-10-09</define-tag>
<define-tag secrefs>CVE-2023-5169 CVE-2023-5171 CVE-2023-5176 CVE-2023-5217</define-tag>
<define-tag packages>thunderbird</define-tag>
<define-tag isvulnerable>yes</define-tag>
<define-tag fixed>yes</define-tag>
<define-tag fixed-section>no</define-tag>

#use wml::debian::security

