<define-tag pagetitle>DLA-3328-1 clamav</define-tag>
<define-tag report_date>2023-02-20</define-tag>
<define-tag secrefs>CVE-2023-20032 CVE-2023-20052</define-tag>
<define-tag packages>clamav</define-tag>
<define-tag isvulnerable>yes</define-tag>
<define-tag fixed>yes</define-tag>
<define-tag fixed-section>no</define-tag>

#use wml::debian::security

