<define-tag pagetitle>DLA-3609-1 prometheus-alertmanager</define-tag>
<define-tag report_date>2023-10-08</define-tag>
<define-tag secrefs>CVE-2023-40577 Bug#1050558</define-tag>
<define-tag packages>prometheus-alertmanager</define-tag>
<define-tag isvulnerable>yes</define-tag>
<define-tag fixed>yes</define-tag>
<define-tag fixed-section>no</define-tag>

#use wml::debian::security

