<define-tag pagetitle>DLA-3558-1 python-django</define-tag>
<define-tag report_date>2023-09-07</define-tag>
<define-tag secrefs>CVE-2023-41164</define-tag>
<define-tag packages>python-django</define-tag>
<define-tag isvulnerable>yes</define-tag>
<define-tag fixed>yes</define-tag>
<define-tag fixed-section>no</define-tag>

#use wml::debian::security
