<define-tag pagetitle>DLA-3552-1 gst-plugins-ugly1.0</define-tag>
<define-tag report_date>2023-08-31</define-tag>
<define-tag secrefs>CVE-2023-38103 CVE-2023-38104 bug#1043501</define-tag>
<define-tag packages>gst-plugins-ugly1.0</define-tag>
<define-tag isvulnerable>yes</define-tag>
<define-tag fixed>yes</define-tag>
<define-tag fixed-section>no</define-tag>

#use wml::debian::security

