<define-tag pagetitle>DLA-3585-1 exempi</define-tag>
<define-tag report_date>2023-09-25</define-tag>
<define-tag secrefs>CVE-2020-18651 CVE-2020-18652 CVE-2021-36045 CVE-2021-36046 CVE-2021-36047 CVE-2021-36048 CVE-2021-36050 CVE-2021-36051 CVE-2021-36052 CVE-2021-36053 CVE-2021-36054 CVE-2021-36055 CVE-2021-36056 CVE-2021-36057 CVE-2021-36058 CVE-2021-36064 CVE-2021-39847 CVE-2021-40716 CVE-2021-40732 CVE-2021-42528 CVE-2021-42529 CVE-2021-42530 CVE-2021-42531 CVE-2021-42532</define-tag>
<define-tag packages>exempi</define-tag>
<define-tag isvulnerable>yes</define-tag>
<define-tag fixed>yes</define-tag>
<define-tag fixed-section>no</define-tag>

#use wml::debian::security

