<define-tag pagetitle>DLA-3550-1 opendmarc</define-tag>
<define-tag report_date>2023-09-05</define-tag>
<define-tag secrefs></define-tag>
<define-tag packages>opendmarc</define-tag>
<define-tag isvulnerable>yes</define-tag>
<define-tag fixed>yes</define-tag>
<define-tag fixed-section>no</define-tag>

#use wml::debian::security
