<define-tag pagetitle>DLA-3606-1 freerdp2</define-tag>
<define-tag report_date>2023-10-07</define-tag>
<define-tag secrefs>CVE-2020-4030 CVE-2020-4031 CVE-2020-4032 CVE-2020-4033 CVE-2020-11017 CVE-2020-11018 CVE-2020-11019 CVE-2020-11038 CVE-2020-11039 CVE-2020-11040 CVE-2020-11041 CVE-2020-11042 CVE-2020-11043 CVE-2020-11044 CVE-2020-11045 CVE-2020-11046 CVE-2020-11047 CVE-2020-11048 CVE-2020-11049 CVE-2020-11058 CVE-2020-11085 CVE-2020-11086 CVE-2020-11087 CVE-2020-11088 CVE-2020-11089 CVE-2020-11095 CVE-2020-11096 CVE-2020-11097 CVE-2020-11098 CVE-2020-11099 CVE-2020-13396 CVE-2020-13397 CVE-2020-13398 CVE-2020-15103 CVE-2023-39350 CVE-2023-39351 CVE-2023-39352 CVE-2023-39353 CVE-2023-39354 CVE-2023-39355 CVE-2023-39356 CVE-2023-40567 CVE-2023-40181 CVE-2023-40186 CVE-2023-40188 CVE-2023-40569 CVE-2023-40589 Bug#965979 Bug#1051638</define-tag>
<define-tag packages>freerdp2</define-tag>
<define-tag isvulnerable>yes</define-tag>
<define-tag fixed>yes</define-tag>
<define-tag fixed-section>no</define-tag>

#use wml::debian::security

