<define-tag pagetitle>DLA-3614-1 python3.7</define-tag>
<define-tag report_date>2023-10-11</define-tag>
<define-tag secrefs>CVE-2022-48560 CVE-2022-48564 CVE-2022-48565 CVE-2022-48566 CVE-2023-40217</define-tag>
<define-tag packages>python3.7</define-tag>
<define-tag isvulnerable>yes</define-tag>
<define-tag fixed>yes</define-tag>
<define-tag fixed-section>no</define-tag>

#use wml::debian::security

