<define-tag pagetitle>DLA-3573-1 frr</define-tag>
<define-tag report_date>2023-9-19</define-tag>
<define-tag secrefs>CVE-2022-36440 CVE-2022-40302 CVE-2022-40318 CVE-2022-43681 CVE-2023-31490 CVE-2023-38802 CVE-2023-41358 CVE-2023-41360 CVE-2023-41361 CVE-2023-41909 Bug#1035829 Bug#1036062</define-tag>
<define-tag packages>frr</define-tag>
<define-tag isvulnerable>yes</define-tag>
<define-tag fixed>yes</define-tag>
<define-tag fixed-section>no</define-tag>

#use wml::debian::security

