<define-tag pagetitle>DLA-3530-1 openssl</define-tag>
<define-tag report_date>2023-08-16</define-tag>
<define-tag secrefs>CVE-2023-3446 CVE-2023-3817</define-tag>
<define-tag packages>openssl</define-tag>
<define-tag isvulnerable>yes</define-tag>
<define-tag fixed>yes</define-tag>
<define-tag fixed-section>no</define-tag>

#use wml::debian::security

