<define-tag pagetitle>DLA-3559-1 libssh2</define-tag>
<define-tag report_date>2023-09-08</define-tag>
<define-tag secrefs>CVE-2019-13115 CVE-2019-17498 CVE-2020-22218 Bug#932329 Bug#943562</define-tag>
<define-tag packages>libssh2</define-tag>
<define-tag isvulnerable>yes</define-tag>
<define-tag fixed>yes</define-tag>
<define-tag fixed-section>no</define-tag>

#use wml::debian::security

