<define-tag pagetitle>DLA-3536-1 flask</define-tag>
<define-tag report_date>2023-08-20</define-tag>
<define-tag secrefs>CVE-2023-30861 Bug##1035670</define-tag>
<define-tag packages>flask</define-tag>
<define-tag isvulnerable>yes</define-tag>
<define-tag fixed>yes</define-tag>
<define-tag fixed-section>no</define-tag>

#use wml::debian::security

