<define-tag pagetitle>DLA-3418-1 nvidia-graphics-drivers-legacy-390xx</define-tag>
<define-tag report_date>2023-05-11</define-tag>
<define-tag secrefs>CVE-2022-34670 CVE-2022-34674 CVE-2022-34675 CVE-2022-34677 CVE-2022-34680 CVE-2022-42257 CVE-2022-42258 CVE-2022-42259 Bug#1025281</define-tag>
<define-tag packages>nvidia-graphics-drivers-legacy-390xx</define-tag>
<define-tag isvulnerable>yes</define-tag>
<define-tag fixed>yes</define-tag>
<define-tag fixed-section>no</define-tag>

#use wml::debian::security

