<define-tag pagetitle>DLA-3493-1 symfony</define-tag>
<define-tag report_date>2023-07-12</define-tag>
<define-tag secrefs>CVE-2021-21424 CVE-2022-24894 CVE-2022-24895</define-tag>
<define-tag packages>symfony</define-tag>
<define-tag isvulnerable>yes</define-tag>
<define-tag fixed>yes</define-tag>
<define-tag fixed-section>no</define-tag>

#use wml::debian::security

