<define-tag pagetitle>DLA-2236-1 graphicsmagick</define-tag>
<define-tag report_date>2020-06-07</define-tag>
<define-tag secrefs>CVE-2020-12672 Bug#960000</define-tag>
<define-tag packages>graphicsmagick</define-tag>
<define-tag isvulnerable>yes</define-tag>
<define-tag fixed>yes</define-tag>
<define-tag fixed-section>no</define-tag>

#use wml::debian::security

