<define-tag pagetitle>DLA-2210-1 apt</define-tag>
<define-tag report_date>2020-05-15</define-tag>
<define-tag secrefs>CVE-2020-3810</define-tag>
<define-tag packages>apt</define-tag>
<define-tag isvulnerable>yes</define-tag>
<define-tag fixed>yes</define-tag>
<define-tag fixed-section>no</define-tag>

#use wml::debian::security

