<define-tag pagetitle>DLA-2235-1 dbus</define-tag>
<define-tag report_date>2020-06-05</define-tag>
<define-tag secrefs>CVE-2020-12049</define-tag>
<define-tag packages>dbus</define-tag>
<define-tag isvulnerable>yes</define-tag>
<define-tag fixed>yes</define-tag>
<define-tag fixed-section>no</define-tag>

#use wml::debian::security
