<define-tag pagetitle>DLA-2065-1 apache-log4j1.2</define-tag>
<define-tag report_date>2020-1-12</define-tag>
<define-tag secrefs>CVE-2019-17571 Bug#947124</define-tag>
<define-tag packages>apache-log4j1.2</define-tag>
<define-tag isvulnerable>yes</define-tag>
<define-tag fixed>yes</define-tag>
<define-tag fixed-section>no</define-tag>

#use wml::debian::security

