<define-tag pagetitle>DLA-2198-1 otrs2</define-tag>
<define-tag report_date>2020-05-01</define-tag>
<define-tag secrefs>CVE-2020-1770 CVE-2020-1772 CVE-2020-1774</define-tag>
<define-tag packages>otrs2</define-tag>
<define-tag isvulnerable>yes</define-tag>
<define-tag fixed>yes</define-tag>
<define-tag fixed-section>no</define-tag>

#use wml::debian::security

