<define-tag pagetitle>DLA-2498-1 xerces-c</define-tag>
<define-tag report_date>2020-12-17</define-tag>
<define-tag secrefs>CVE-2018-1311 Bug#947431</define-tag>
<define-tag packages>xerces-c</define-tag>
<define-tag isvulnerable>yes</define-tag>
<define-tag fixed>yes</define-tag>
<define-tag fixed-section>no</define-tag>

#use wml::debian::security

