<define-tag pagetitle>DLA-2445-1 libmaxminddb</define-tag>
<define-tag report_date>2020-11-10</define-tag>
<define-tag secrefs>CVE-2020-28241 Bug#973878</define-tag>
<define-tag packages>libmaxminddb</define-tag>
<define-tag isvulnerable>yes</define-tag>
<define-tag fixed>yes</define-tag>
<define-tag fixed-section>no</define-tag>

#use wml::debian::security

