<define-tag pagetitle>DLA-2476-1 brotli</define-tag>
<define-tag report_date>2020-12-01</define-tag>
<define-tag secrefs>CVE-2020-8927</define-tag>
<define-tag packages>brotli</define-tag>
<define-tag isvulnerable>yes</define-tag>
<define-tag fixed>yes</define-tag>
<define-tag fixed-section>no</define-tag>

#use wml::debian::security

