<define-tag pagetitle>DLA-1366-1 wordpress</define-tag>
<define-tag report_date>2018-4-27</define-tag>
<define-tag secrefs>CVE-2018-10100 CVE-2018-10102 Bug#895034</define-tag>
<define-tag packages>wordpress</define-tag>
<define-tag isvulnerable>yes</define-tag>
<define-tag fixed>yes</define-tag>
<define-tag fixed-section>no</define-tag>

#use wml::debian::security

