<define-tag pagetitle>DLA-1481-1 linux-4.9</define-tag>
<define-tag report_date>2018-8-28</define-tag>
<define-tag secrefs>CVE-2018-3620 CVE-2018-3646 Bug#906769</define-tag>
<define-tag packages>linux-4.9</define-tag>
<define-tag isvulnerable>yes</define-tag>
<define-tag fixed>yes</define-tag>
<define-tag fixed-section>no</define-tag>

#use wml::debian::security

