<define-tag pagetitle>DLA-1585-1 ruby-rack</define-tag>
<define-tag report_date>2018-11-21</define-tag>
<define-tag secrefs>CVE-2018-16471 Bug##913005</define-tag>
<define-tag packages>ruby-rack</define-tag>
<define-tag isvulnerable>yes</define-tag>
<define-tag fixed>yes</define-tag>
<define-tag fixed-section>no</define-tag>

#use wml::debian::security

