<define-tag pagetitle>DSA-4396-1 ansible</define-tag>
<define-tag report_date>2019-2-19</define-tag>
<define-tag secrefs>CVE-2018-10855 CVE-2018-10875 CVE-2018-16837 CVE-2018-16876 CVE-2019-3828</define-tag>
<define-tag packages>ansible</define-tag>
<define-tag isvulnerable>yes</define-tag>
<define-tag fixed>yes</define-tag>
<define-tag fixed-section>no</define-tag>

#use wml::debian::security



</dl>
