<define-tag pagetitle>DSA-4476-1 python-django</define-tag>
<define-tag report_date>2019-7-05</define-tag>
<define-tag secrefs>CVE-2019-6975 CVE-2019-12308 CVE-2019-12781</define-tag>
<define-tag packages>python-django</define-tag>
<define-tag isvulnerable>yes</define-tag>
<define-tag fixed>yes</define-tag>
<define-tag fixed-section>no</define-tag>

#use wml::debian::security



</dl>
