<define-tag pagetitle>DSA-5179-1 php7.4</define-tag>
<define-tag report_date>2022-7-08</define-tag>
<define-tag secrefs>CVE-2022-31625 CVE-2022-31626</define-tag>
<define-tag packages>php7.4</define-tag>
<define-tag isvulnerable>yes</define-tag>
<define-tag fixed>yes</define-tag>
<define-tag fixed-section>no</define-tag>

#use wml::debian::security



</dl>
