<define-tag pagetitle>DSA-5191-1 linux</define-tag>
<define-tag report_date>2022-7-26</define-tag>
<define-tag secrefs>CVE-2021-33655 CVE-2022-2318 CVE-2022-26365 CVE-2022-33740 CVE-2022-33741 CVE-2022-33742 CVE-2022-33743 CVE-2022-33744 CVE-2022-34918</define-tag>
<define-tag packages>linux</define-tag>
<define-tag isvulnerable>yes</define-tag>
<define-tag fixed>yes</define-tag>
<define-tag fixed-section>no</define-tag>

#use wml::debian::security



</dl>
