<define-tag pagetitle>DSA-5082-1 php7.4</define-tag>
<define-tag report_date>2022-2-18</define-tag>
<define-tag secrefs>CVE-2021-21707 CVE-2021-21708</define-tag>
<define-tag packages>php7.4</define-tag>
<define-tag isvulnerable>yes</define-tag>
<define-tag fixed>yes</define-tag>
<define-tag fixed-section>no</define-tag>

#use wml::debian::security



</dl>
