<define-tag pagetitle>DSA-5178-1 intel-microcode</define-tag>
<define-tag report_date>2022-7-06</define-tag>
<define-tag secrefs>CVE-2022-21123 CVE-2022-21125 CVE-2022-21127 CVE-2022-21151 CVE-2022-21166 Bug#1010947</define-tag>
<define-tag packages>intel-microcode</define-tag>
<define-tag isvulnerable>yes</define-tag>
<define-tag fixed>yes</define-tag>
<define-tag fixed-section>no</define-tag>

#use wml::debian::security



</dl>
