<define-tag pagetitle>DSA-5038-1 ghostscript</define-tag>
<define-tag report_date>2022-1-08</define-tag>
<define-tag secrefs>CVE-2021-45944 CVE-2021-45949</define-tag>
<define-tag packages>ghostscript</define-tag>
<define-tag isvulnerable>yes</define-tag>
<define-tag fixed>yes</define-tag>
<define-tag fixed-section>no</define-tag>

#use wml::debian::security



</dl>
