<define-tag pagetitle>DLA-267-1 unattended-upgrades</define-tag>
<define-tag report_date>2015-7-2</define-tag>
<define-tag secrefs>CVE-2015-1330</define-tag>
<define-tag packages>unattended-upgrades</define-tag>
<define-tag isvulnerable>yes</define-tag>
<define-tag fixed>yes</define-tag>
<define-tag fixed-section>no</define-tag>

#use wml::debian::security

