<define-tag pagetitle>DLA-1848-1 libspring-security-2.0-java</define-tag>
<define-tag report_date>2019-07-09</define-tag>
<define-tag secrefs>CVE-2019-11272</define-tag>
<define-tag packages>libspring-security-2.0-java</define-tag>
<define-tag isvulnerable>yes</define-tag>
<define-tag fixed>yes</define-tag>
<define-tag fixed-section>no</define-tag>

#use wml::debian::security

