<define-tag pagetitle>DLA-1708-1 zabbix</define-tag>
<define-tag report_date>2019-3-11</define-tag>
<define-tag secrefs>CVE-2016-10742 CVE-2017-2826</define-tag>
<define-tag packages>zabbix</define-tag>
<define-tag isvulnerable>yes</define-tag>
<define-tag fixed>yes</define-tag>
<define-tag fixed-section>no</define-tag>

#use wml::debian::security

