<define-tag pagetitle>DLA-1652-1 libvncserver</define-tag>
<define-tag report_date>2019-1-31</define-tag>
<define-tag secrefs>CVE-2018-15126 CVE-2018-20748 CVE-2018-20749 CVE-2018-20750</define-tag>
<define-tag packages>libvncserver</define-tag>
<define-tag isvulnerable>yes</define-tag>
<define-tag fixed>yes</define-tag>
<define-tag fixed-section>no</define-tag>

#use wml::debian::security

