<define-tag pagetitle>DLA-629-1 jackrabbit</define-tag>
<define-tag report_date>2016-9-18</define-tag>
<define-tag secrefs>CVE-2016-6801 Bug#838204</define-tag>
<define-tag packages>jackrabbit</define-tag>
<define-tag isvulnerable>yes</define-tag>
<define-tag fixed>yes</define-tag>
<define-tag fixed-section>no</define-tag>

#use wml::debian::security

